803995 80354 509
653305 843449 525
964056 504752 525
881966 34793 525
734671 517980 509
48594 891457 525
329507 196963 443
581932 480947 470
773047 981285 525
508944 375394 449
576643 560439 421
921861 122229 525
733803 822352 468
743918 201249 509
947549 220314 525
949948 168370 525
602039 928742 525
2176 752444 509
407261 594315 470
871928 627671 525
697987 715375 504
755974 640078 504
737063 915952 525
179752 421960 449
5218 514457 470
304475 78677 443
873270 186734 525
76263 830341 509
241767 426227 449
736862 747235 424
977307 38698 525
198740 137016 383
191561 950469 525
485729 575682 470
688241 950146 525
590212 229838 470
876918 352187 525
508472 759236 509
97592 102649 341
410497 339551 449
922120 345852 525
920006 232107 525
351858 728511 509
386086 950115 525
60735 171159 383
673454 21543 509
343615 972289 525
683130 251113 509
518901 919411 525
499788 199396 449
172248 970286 525
806137 744833 468
215861 729931 509
117746 860956 525
903199 252919 525
161912 861268 525
686412 173688 509
498140 282353 449
913771 197714 525
934443 70087 525
10987 477069 449
205138 664957 509
291099 424627 449
456749 505663 444
108828 769507 509
125005 454339 449
453891 446146 387
201560 715246 509
895091 96395 525
898957 81418 525
626263 532378 452
836100 669954 504
872420 754138 525
402417 721570 509
411709 545898 470
586306 246296 470
503098 866948 525
806855 374949 509
718334 402549 509
221788 488117 449
790993 603856 509
141378 382548 443
907219 273755 525
765253 880455 525
413482 444483 418
30879 592659 470
347848 90825 443
70392 308774 443
749763 545207 509
360570 924607 525
282383 834158 509
223025 73058 386
524479 166428 470
472965 756189 509
553968 283833 470
87249 528458 470
39757 817851 509
807108 219991 509
147795 484934 449
224908 656677 509
