1 10 20
100 200 125
201 210 89
900 1000 174
1 1 1
2 1 2
300 6 128
1 2 2
1 1000000 525
156761 248939 443
400206 627607 509
108210 121832 349
886694 940699 507
27514 96289 351
237129 555244 470
249308 369561 441
113617 727455 509
232752 368871 441
314314 601084 470
634193 675387 442
740641 839897 525
112891 120163 349
604461 681213 509
280615 771195 509
187348 410654 449
44298 153234 375
304375 725665 509
182843 586376 470
313585 500020 449
277200 705109 509
581 311185 443
22 11231 268
83274 160602 383
199375 586156 470
526129 760797 509
528052 680364 509
32512 39637 324
354834 363567 410
735 2152 182
196061 595622 470
528948 547337 452
463351 728871 509
157726 975607 525
490884 960146 525
280198 367227 441
277695 415827 449
18137 34717 311
201117 915099 525
35735 370415 443
419333 683157 509
11485 11790 237
171659 720719 509
458705 509774 444
142475 406133 443
450220 498249 444
565918 609159 434
78399 482967 449
123520 932740 525
789234 962973 525
62719 112710 354
69861 641323 509
308799 587667 470
265 7512 262
369238 461229 449
505785 596982 470
75201 258139 443
85654 333751 443
100593 317726 443
314636 909678 525
6033 161866 383
380793 695450 509
189087 369878 443
254478 446895 449
150806 167890 383
346311 490702 449
601048 611388 403
221300 346571 443
451772 640268 509
38792 324705 443
9934 872737 525
73820 85969 351
124922 316524 443
277327 646411 509
653730 700098 442
160206 878016 525
143414 662629 509
81168 83521 320
143509 463440 449
46676 140173 354
925074 996067 507
45363 549270 470
469083 833346 509
389239 554215 470
461126 891250 525
221224 248601 443
441674 672548 509
11405 14767 276
458728 712461 509
320071 832842 509
2337 3177 217
576609 646800 509
119228 320792 443
142619 457700 449
26775 31442 285
2552 12251 268
109146 607403 470
333029 702891 509
288298 497193 449
152149 491623 449
