................
----------------------------------------------------------------------
Ran 16 tests in 9.114s

OK
Name             Stmts   Miss Branch BrPart  Cover   Missing
------------------------------------------------------------
Collatz.py          45      1     22      1    97%   113, 112->113
TestCollatz.py      69      0      0      0   100%
------------------------------------------------------------
TOTAL              114      1     22      1    99%
