1 10 20
100 200 125
201 210 89
900 1000 174
10 1 20
9 9 20
468348 147655 449
838895 865974 419
522564 48978 470
190180 746750 509
623297 743269 509
529089 236667 470
468141 190833 449
887132 923479 476
480901 486746 382
824934 470355 509
284751 632348 509
892915 133671 525
148264 115348 375
846212 969 525
159602 778776 509
140885 794052 509
464954 243882 449
346281 644582 509
93652 106639 354
72203 637943 509
522909 898048 525
545742 930008 525
302930 563524 470
117374 996283 525
137164 955611 525
588968 19783 470
612494 958840 525
325094 473893 449
16385 176933 383
709488 783001 468
774887 366442 509
500302 371132 449
623390 982254 525
282885 484191 449
756334 898961 525
3515 816837 509
314621 274391 389
952490 194945 525
986266 723903 525
997267 652022 525
45117 995371 525
450044 614758 470
35973 879532 525
244837 871695 525
283533 711030 509
949074 212483 525
550568 597826 434
621372 451950 470
898882 34120 525
784699 178887 509
126288 768328 509
78407 700920 509
594067 36093 470
369287 210633 443
179621 431434 449
794743 779634 437
556689 849327 525
205114 982689 525
697285 339291 509
763118 444789 509
109303 371889 443
70843 984129 525
472867 937115 525
398735 131856 443
889471 120525 525
288599 470235 449
898919 417505 525
249514 742919 509
988885 324475 525
394516 338766 441
509568 928472 525
15339 562257 470
115059 654192 509
583121 284214 470
989083 325070 525
275195 851332 525
734487 814219 468
564220 239809 470
780418 633199 504
224611 641403 509
787948 364014 509
307541 183061 443
175124 781890 509
652890 260790 509
461383 284196 449
338269 365500 441
963822 323771 525
334486 711689 509
680143 401638 509
786719 281995 509
974868 631891 525
251096 631903 509
65270 239855 443
127552 671869 509
379351 978257 525
362638 167381 443
437811 516191 470
75758 436216 449
329480 23371 443
768565 192335 509
805149 582745 509
555312 62954 470
