1 10 20
100 200 125
201 210 89
900 1000 174
45432 14233 324
98765 54687 351
67777 98765 351
32324 76765 340
43341 55555 340
98756 99999 328
14523 13432 258
23093 65983 340
33414 33313 236
73413 13244 340
90013 41242 351
38831 13431 324
43312 34234 324
15321 19000 279
31434 43143 324
78132 12345 351
88998 90000 315
35873 45837 314
11111 22222 279
22222 33333 308
44444 55555 340
66666 77777 351
88888 99999 333
12345 67890 340
23451 68791 340
19191 20202 274
45542 98908 351
13434 43499 324
111111 222222 386
333333 444444 449
555555 666666 509
777777 888888 525
999999 111111 525
123456 789123 509
321456 789654 509
656565 767676 504
387474 474747 449
565656 373887 470
888888 913232 476
988776 363636 525
767677 898989 525
344343 564454 470
878787 979797 507
574893 694301 509
293803 493812 449
489321 329844 449
829401 234189 509
982743 839141 507
479323 338923 449
892735 645924 525
348952 454355 449
825934 498792 509
849353 124344 525
980344 485092 525
489542 849355 525
890525 483920 525
848484 123433 525
321421 859343 525
834975 466432 509
939838 138483 525
884742 372944 525
839243 423894 525
323284 428394 449
454542 894355 525
803457 543809 509
353455 534525 470
987435 985342 396
895345 840792 445
734623 485724 509
553535 523424 452
510988 582901 470
629104 219844 509
692048 699999 367
498124 321098 449
132412 908098 525
898989 993241 507
888881 888912 264
830134 783482 468
999399 999999 290
324134 913241 525
893434 895891 370
324859 980174 525
887312 412943 525
747495 471289 509
849321 124231 525
123412 767676 509
432412 432984 387
894890 829314 525
980234 412983 525
897430 782989 525
798892 998998 525
982413 843143 507
324924 897809 525
284743 218943 443
487329 657325 509
128989 898989 525
849214 823917 525
434344 734128 509
954321 545432 525
742319 811989 468
999123 382494 525
636426 473241 509
