1 10 20
100 200 125
201 210 89
900 1000 174
1 1 1
10 1 20
1 2 2
2 1 2
8488 8558 203
4826 4869 166
9286 9385 198
7257 7213 164
634 576 132
555 488 142
923 868 179
6152 6227 262
2367 2355 121
514 605 137
1673 1681 136
3963 3999 189
7319 7248 195
1923 1999 175
2390 2402 165
9508 9563 198
8083 8165 190
3309 3306 93
6721 6811 182
2451 2505 209
8552 8542 172
2323 2225 183
313 321 131
5585 5675 205
3300 3262 137
7468 7430 164
8152 8147 159
2620 2549 178
8370 8438 203
5635 5607 174
4085 4151 189
1788 1730 180
6360 6302 200
3297 3199 168
1065 966 169
3320 3372 181
9161 9201 185
8845 8749 216
7823 7811 133
9722 9642 185
8434 8391 203
9843 9914 242
8048 8024 190
2724 2671 160
9784 9757 180
9620 9672 185
1269 1353 177
9696 9654 185
3341 3268 181
9240 9150 229
4844 4846 73
2529 2481 178
4240 4301 202
2458 2418 165
5505 5441 192
6547 6527 169
9822 9828 136
3755 3836 176
9938 10022 211
6370 6426 200
4941 4861 210
2264 2330 183
3133 3127 155
7307 7370 195
1621 1573 167
600 592 119
8118 8206 190
5120 5143 148
3719 3738 132
6594 6603 138
3199 3213 168
649 702 145
4144 4145 127
5765 5847 218
7365 7465 239
4157 4199 158
3439 3481 150
9170 9204 185
3428 3408 150
5012 5040 135
1368 1398 159
5831 5849 218
1108 1106 138
4635 4596 153
2615 2674 191
6204 6215 156
4418 4418 78
8889 8789 185
3885 3971 189
1828 1830 131
6391 6339 200
2880 2904 142
7169 7161 195
8137 8156 159
7172 7098 195
1 1 1
5 5 6
329085 997514 525
272759 527311 470
788549 481741 509
534 497985 449
28745 119497 354
41745 145333 375
77602 382696 443
88156 358121 443
111939 87698 354
127399 386402 443
144400 411391 449
167940 154988 383
190349 731791 509
213582 871600 525
237180 790161 509
26 36 112
246 256 110
221 231 128
486 496 142
139 149 117
111 121 96
338 348 126
54 64 113
406 416 134
922 926 130
643 128 144
667 65 145
711 909 179
954 14 179
537 685 145
399 420 134
426 619 142
830 214 171
667 257 145
628 302 144
253 102 128
448 801 171
472 535 142
786 876 179
596 72 144
684 490 145
228 823 171
718 579 171
73626 74908 325
769126 773157 393
216389 220288 355
702910 704489 349
460776 465031 444
739726 742145 393
75156 78812 351
603708 608319 403
276781 277322 252
268001 268848 270
76393 79860 351
58068 59602 273
741367 746236 349
869985 872133 432
479612 481181 413
177561 182252 365
303416 305000 340
803203 806072 375
129095 130889 344
78256 82297 338
708484 710680 380
361901 363972 361
754888 755999 362
495313 499090 351
528693 531526 377
413053 416337 374
462339 464644 338
47540 49595 296
117607 121418 336
589733 593578 403
178723 180936 365
929641 932466 370
24837 25287 264
96925 97947 297
328140 331933 353
893483 893536 264
8713 8817 216
6170 3386 238
3985 3113 238
3307 5129 238
3295 3624 194
7732 8114 252
2176 5080 238
4728 2511 238
319278 280513 389
288499 248320 407
330191 386355 441
279751 231087 407
218108 370204 443
274537 225343 443
325025 368568 441
345805 242269 407
