1 10 20
100 200 125
201 210 89
900 1000 174
10 1 20
1 999999 525
693403 830681 504
833232 970717 525
221531 410055 449
419517 982671 525
840665 978087 507
390785 792231 509
812342 948888 525
41530 834062 509
546626 831634 509
446310 951732 525
910755 995190 507
646286 882803 525
141545 905797 525
310382 894076 525
470706 829693 509
531509 911428 525
370112 898154 525
731744 877107 525
403102 782806 509
745118 983153 525
28312 956280 525
22599 788009 509
344073 888849 525
561130 717045 509
684331 759833 504
597028 988749 525
181078 730583 509
323778 744930 509
893675 944609 507
895238 917350 476
872059 998763 507
757523 922586 525
568630 952019 525
916245 994074 507
342770 628602 509
90598 194084 383
412254 809188 509
831684 946580 525
497450 955842 525
589740 681179 509
577026 725933 509
403392 407228 405
628001 641607 416
353783 958801 525
958331 994372 458
177415 546431 470
756809 943090 525
463749 898164 525
782920 967202 525
677103 729879 504
698389 900110 525
837107 938509 525
402517 748740 509
67945 715052 509
874988 939305 476
383849 577673 470
452712 691803 509
16793 827020 509
171315 277370 443
312034 506509 449
787315 989131 525
718155 893698 525
363550 809006 509
680479 768619 504
848316 958858 507
310186 359079 441
907790 999423 507
546222 728637 509
381600 922349 525
153042 903936 525
123089 247144 443
304441 997943 525
658596 879092 525
692268 826993 504
54240 970649 525
68459 404604 443
613992 801798 509
879858 983872 507
549468 568762 421
187523 686155 509
559690 870461 525
375643 875278 525
338185 920368 525
249981 383147 441
385146 623787 470
1680 296275 443
143955 152223 370
169535 697241 509
404256 610408 470
172283 886539 525
117837 854730 525
202216 978975 525
258945 394506 441
272360 809267 509
127263 543948 470
991743 995540 365
539614 899712 525
206703 798007 509
685589 701022 442
990921 996930 365
32600 795867 509
592901 758925 509
557506 579355 421
856723 908294 445
754802 975851 525
320523 432672 449
325427 877480 525
666735 785788 504
185649 216037 373
449228 911064 525
