1 10 20
100 200 125
201 210 89
900 1000 174
1 10 20
100 200 125
201 210 89
900 1000 174
10001 11000 268
1345 2 182
1000 1000 112
1234 123 182
55555 44444 340
1 999 179
343 989 179
56789 23456 340
80 5 116
7500 6500 257
90000 11000 351
250 1000 179
872 1000 174
999 1001 143
287 444 144
200 12000 268
670 1050 179
100100 500000 449
9232 27 262
173782 320392 443
4500 999934 525
23 24 16
95 1077 179
845 2944 217
301 401 144
7000 6999 133
1 1000 179
1000 2000 182
2000 3000 217
3000 4000 238
4000 5000 215
5000 6000 236
6000 7000 262
7000 8000 252
9000 8000 247
10000 9000 260
15000 999 276
4500 998 238
61 34 113
50 60 113
150000 160001 383
1 100 119
200 300 128
301 400 144
405 500 142
502 600 137
601 699 145
700 800 171
900 801 179
849 1990 182
1998 2002 144
1864 1500 180
31 33 107
6000 6000 50
100200 100200 116
999888 999999 259
98765 87654 333
800000 999999 525
1 18 21
2 300 128
3 4678 238
4 45 112
333 375 126
262 276 123
1001 1989 182
999 2002 182
1540 1333 172
918273 839201 476
90 100 119
1560 4500 238
4455 5566 210
3450 3450 44
1111 2222 182
5555 6868 262
9050 10050 260
560005 305 470
1111 2222 182
5555 6868 262
9050 10050 260
560005 305 470
717 1890 182
999999 999998 259
1620 1720 180
12893 89374 351
12 16 18
50 150 122
998 1998 182
40500 63 324
7777 9999 260
1800 1900 175
78 77 36
909090 909090 189
85 900 179
2000 3350 217
17000 22000 279
990 1020 156
40 56 113
98 101 26
1000 1500 182
1501 2001 180
80 1 116
256 1256 182
555 1555 182
46 999999 525
100 15436 276
1700 1700 61
2875 2975 217
8000 80000 351
4750 1300 238
777 1777 182
23 96 116
1 199 125
999 9999 262
1250 999999 525
950 4000 238
1650 1200 177
5560 1 238
180 1800 182
125 1250 182
