................
----------------------------------------------------------------------
Ran 16 tests in 4.169s

OK
Name             Stmts   Miss Branch BrPart  Cover   Missing
------------------------------------------------------------
Collatz.py          52      1     18      1    97%   46, 45->46
TestCollatz.py      64      0      0      0   100%
------------------------------------------------------------
TOTAL              116      1     18      1    99%
