1 10 20
100 200 125
201 210 89
900 1000 174
1 1 1
100 100 26
1 1000000 525
100 200 125
150 151 16
2 999999 525
100 99 26
9901 1000000 525
50000 999998 525
49999 899998 525
2 19 21
6 22 21
8 94 116
94 8 116
22 6 21
19 2 21
110 251 128
666 666 114
987654 321 525
123 456789 449
1234 5678 238
123456 789012 509
50 101 119
98 102 26
164 6150 238
49000 50001 296
999998 999999 259
987654 354 525
12 15 18
612 123 144
684 998 179
16845 12356 276
99 100 26
100 99 26
99 99 26
852 8225 262
951 159 179
159 951 179
987 4567 238
75357 15951 340
1000000 1000000 153
1 101 119
856 869 148
69 96 116
69 420 144
89 99 119
456 654 145
78945 12210 351
963214 987412 458
519361 519865 302
159159 725648 509
1651 5198 238
19 22 21
10 80 116
11 79 116
152 1519 182
165 1695 182
1648 164198 383
5216 54416 340
4658 58469 340
47 485 144
41 54163 340
1685 8541 262
41641 568416 470
584716 69584 470
8749 65846 340
165 5658 238
14658 56854 340
74 468 144
485 48569 324
5 458 144
516 58784 340
41566 64581 340
5684 516866 470
1 8 17
984 5899 238
65 85468 351
416 85469 351
4564 1100 238
1000 1200 182
51698 56111 340
4 4968 238
1 985 179
68 984 179
65 854 171
163 498 144
4168 5867 236
4968 6564 262
8745 86594 351
84965 896998 525
100 1000 179
5165 85468 351
463584 85644 449
845697 85469 525
854666 685948 525
85469 8564 351
46587 524187 470
