.............
----------------------------------------------------------------------
Ran 13 tests in 44.603s

OK
Name             Stmts   Miss Branch BrPart  Cover   Missing
------------------------------------------------------------
Collatz.py          29      0     10      0   100%
TestCollatz.py      56      0      0      0   100%
------------------------------------------------------------
TOTAL               85      0     10      0   100%
