1 10 20
100 200 125
201 210 89
300 300 17
900 1000 174
1 1000 179
500 1500 182
1 2000 182
500 2500 209
1028 1028 125
1028 1034 156
1028 500 179
2019 5000 238
999000 999999 396
1 999999 525
495010 335426 449
582532 474606 470
643330 754517 504
49434 850248 525
39342 643141 509
362565 852887 525
999620 210592 525
986921 181114 525
300656 719922 509
355126 878988 525
521443 918968 525
211545 915886 525
410475 86619 449
325206 798104 509
224967 986107 525
505172 738736 509
462575 357293 449
772036 977502 525
407064 182446 443
40376 716431 509
483282 913399 525
305063 80688 443
749787 457111 509
698405 573682 509
741513 484520 509
365342 581831 470
491671 619085 470
223078 579702 470
194661 252430 443
701301 632359 442
73592 522606 470
693777 811352 504
222850 454498 449
192199 575703 470
420265 27594 449
551247 167883 470
369476 711666 509
171893 726681 509
607684 91286 470
520931 953485 525
529566 225672 470
53529 234850 443
72514 168137 383
955815 784902 525
219588 686266 509
257047 855217 525
108666 648055 509
523010 47411 470
202231 436355 449
270981 404026 441
479151 737449 509
562891 307981 470
224506 151214 386
715885 702489 504
29020 963762 525
791725 462351 509
390020 232196 441
852046 936745 476
765389 212842 509
492309 826322 509
443093 267490 449
308477 315589 384
968776 637691 525
513684 645122 509
628584 896681 525
964514 871788 507
697160 174133 509
949305 485561 525
476049 381426 449
846190 260192 525
545622 542118 359
373853 552265 470
908251 283302 525
540689 866460 525
376547 625550 470
346924 261205 441
731662 828140 468
830654 286680 509
485314 907363 525
202509 695723 509
991287 913498 507
416280 330036 449
826912 806101 450
345946 272513 389
697047 547716 509
293014 268768 407
601224 45511 470
89316 30588 351
466122 440738 444
962433 150805 525
736827 925552 525
605061 67433 470
553768 443642 470
495487 629462 509
662917 666292 442
644817 285512 509
743100 819547 468
158864 867347 525
268931 510709 449
798525 218692 509
