................
----------------------------------------------------------------------
Ran 16 tests in 0.838s

OK
Name             Stmts   Miss  Cover   Missing
----------------------------------------------
Collatz.py          58      3    95%   76-77, 128
TestCollatz.py      69      0   100%
----------------------------------------------
TOTAL              127      3    98%