.............
----------------------------------------------------------------------
Ran 13 tests in 0.037s

OK
Name             Stmts   Miss Branch BrPart  Cover   Missing
------------------------------------------------------------
Collatz.py          58     10     26      5    82%   93-96, 100-103, 107, 112, 92->93, 99->100, 106->107, 111->112, 117->122
TestCollatz.py      54      0      0      0   100%
------------------------------------------------------------
TOTAL              112     10     26      5    89%

#the missing lines are due to some parts of my cache not begin used